%YAML 1.1
%TAG !u! tag:unity3d.com,2011:
--- !u!114 &11400000
MonoBehaviour:
  m_ObjectHideFlags: 0
  m_CorrespondingSourceObject: {fileID: 0}
  m_PrefabInstance: {fileID: 0}
  m_PrefabAsset: {fileID: 0}
  m_GameObject: {fileID: 0}
  m_Enabled: 1
  m_EditorHideFlags: 0
  m_Script: {fileID: 11500000, guid: 11299a0f996b722408de2954e2310773, type: 3}
  m_Name: ISPomme
  m_EditorClassIdentifier: 
  id: 1
  name: pomme
  spriteItem: {fileID: 7482667652216324306, guid: 5c76477d2df434f49a2947f85ea3dae4, type: 3}
